Bug Title:
<<Short and clear description of actual bug>>

Bug url:
<< Actual url where bug was appeared>>

Steps to reproduce:
1. Open the url <<www.example.com>>
2. Click on Search icon.
3. 
4. 

Expected Result:
<<Should be>>

Actual Result:
<<past tens>>


OS                	: MS Windows 10 Pro x64
OS Version		: 1809
OS Build       		: Build 17763.437


Platform Used    	: Web Browser 
Browser          	: Safari                                                         
Browser Version 	: 12.1 (14607.1.40.1.4)

			  
Bug Video/Screenshot	:
       
Log File (if requested): 


